^D:\ZA FAX\TRECA GODINA\VI SEMESTAR\BAZE\PROJEKAT BAZE\MMORPG_VER1\FORM1.RESX|D:\ZA FAX\TRECA GODINA\VI SEMESTAR\BAZE\PROJEKAT BAZE\MMORPG_VER1\PROPERTIES\RESOURCES.RESX
D:\ZA FAX\TRECA GODINA\VI SEMESTAR\BAZE\PROJEKAT BAZE\MMORPG_VER1\OBJ\X86\DEBUG\MMORPG_VER1.FORM1.RESOURCES
D:\ZA FAX\TRECA GODINA\VI SEMESTAR\BAZE\PROJEKAT BAZE\MMORPG_VER1\OBJ\X86\DEBUG\MMORPG_VER1.PROPERTIES.RESOURCES.RESOURCES
^D:\ZA FAX\TRECA GODINA\VI SEMESTAR\BAZE\PROJEKAT BAZE VER2\MMORPG_VER1\FORM1.RESX|D:\ZA FAX\TRECA GODINA\VI SEMESTAR\BAZE\PROJEKAT BAZE VER2\MMORPG_VER1\PROPERTIES\RESOURCES.RESX
D:\ZA FAX\TRECA GODINA\VI SEMESTAR\BAZE\PROJEKAT BAZE VER2\MMORPG_VER1\OBJ\X86\DEBUG\MMORPG_VER1.FORM1.RESOURCES
D:\ZA FAX\TRECA GODINA\VI SEMESTAR\BAZE\PROJEKAT BAZE VER2\MMORPG_VER1\OBJ\X86\DEBUG\MMORPG_VER1.PROPERTIES.RESOURCES.RESOURCES
^D:\ZA FAX\TRECA GODINA\VI SEMESTAR\BAZE\PROJEKAT BAZE FINAL\MMORPG_VER1\FORM1.RESX|D:\ZA FAX\TRECA GODINA\VI SEMESTAR\BAZE\PROJEKAT BAZE FINAL\MMORPG_VER1\PROPERTIES\RESOURCES.RESX|D:\ZA FAX\TRECA GODINA\VI SEMESTAR\BAZE\PROJEKAT BAZE FINAL\MMORPG_VER1\REGISTERFORM.RESX
D:\ZA FAX\TRECA GODINA\VI SEMESTAR\BAZE\PROJEKAT BAZE FINAL\MMORPG_VER1\OBJ\X86\DEBUG\MMORPG_VER1.FORM1.RESOURCES
D:\ZA FAX\TRECA GODINA\VI SEMESTAR\BAZE\PROJEKAT BAZE FINAL\MMORPG_VER1\OBJ\X86\DEBUG\MMORPG_VER1.PROPERTIES.RESOURCES.RESOURCES
D:\ZA FAX\TRECA GODINA\VI SEMESTAR\BAZE\PROJEKAT BAZE FINAL\MMORPG_VER1\OBJ\X86\DEBUG\MMORPG_VER1.REGISTERFORM.RESOURCES
